                              1 	.module main
                              2 
                              3 	;; ENDPOINTS
                              4 	;; EP0 in/out   Control
                              5 	;; COMMAND LIST
                              6 	;; C0 B4  read I2C eeprom
                              7 	;; 40 B4  write I2C eeprom
                              8 	
                              9 	;; define code segments link order
                             10 	.area CODE (CODE)
                             11 	.area CSEG (CODE)
                             12 	.area GSINIT (CODE)
                             13 	.area GSINIT2 (CODE)
                             14 
                             15 	;; -----------------------------------------------------
                             16 
                             17 	;; special function registers (which are not predefined)
                    0082     18 	dpl0    = 0x82
                    0083     19 	dph0    = 0x83
                    0084     20 	dpl1    = 0x84
                    0085     21 	dph1    = 0x85
                    0086     22 	dps     = 0x86
                    008E     23 	ckcon   = 0x8E
                    008F     24 	spc_fnc = 0x8F
                    0091     25 	exif    = 0x91
                    0092     26 	mpage   = 0x92
                    0098     27 	scon0   = 0x98
                    0099     28 	sbuf0   = 0x99
                    00C0     29 	scon1   = 0xC0
                    00C1     30 	sbuf1   = 0xC1
                    00D8     31 	eicon   = 0xD8
                    00E8     32 	eie     = 0xE8
                    00F8     33 	eip     = 0xF8
                             34 
                             35 	;; anchor xdata registers
                    7F00     36 	IN0BUF		= 0x7F00
                    7EC0     37 	OUT0BUF		= 0x7EC0
                    7E80     38 	IN1BUF		= 0x7E80
                    7E40     39 	OUT1BUF		= 0x7E40
                    7E00     40 	IN2BUF		= 0x7E00
                    7DC0     41 	OUT2BUF		= 0x7DC0
                    7D80     42 	IN3BUF		= 0x7D80
                    7D40     43 	OUT3BUF		= 0x7D40
                    7D00     44 	IN4BUF		= 0x7D00
                    7CC0     45 	OUT4BUF		= 0x7CC0
                    7C80     46 	IN5BUF		= 0x7C80
                    7C40     47 	OUT5BUF		= 0x7C40
                    7C00     48 	IN6BUF		= 0x7C00
                    7BC0     49 	OUT6BUF		= 0x7BC0
                    7B80     50 	IN7BUF		= 0x7B80
                    7B40     51 	OUT7BUF		= 0x7B40
                    7FE8     52 	SETUPBUF	= 0x7FE8
                    7FE8     53 	SETUPDAT	= 0x7FE8
                             54 
                    7FB4     55 	EP0CS		= 0x7FB4
                    7FB5     56 	IN0BC		= 0x7FB5
                    7FB6     57 	IN1CS		= 0x7FB6
                    7FB7     58 	IN1BC		= 0x7FB7
                    7FB8     59 	IN2CS		= 0x7FB8
                    7FB9     60 	IN2BC		= 0x7FB9
                    7FBA     61 	IN3CS		= 0x7FBA
                    7FBB     62 	IN3BC		= 0x7FBB
                    7FBC     63 	IN4CS		= 0x7FBC
                    7FBD     64 	IN4BC		= 0x7FBD
                    7FBE     65 	IN5CS		= 0x7FBE
                    7FBF     66 	IN5BC		= 0x7FBF
                    7FC0     67 	IN6CS		= 0x7FC0
                    7FC1     68 	IN6BC		= 0x7FC1
                    7FC2     69 	IN7CS		= 0x7FC2
                    7FC3     70 	IN7BC		= 0x7FC3
                    7FC5     71 	OUT0BC		= 0x7FC5
                    7FC6     72 	OUT1CS		= 0x7FC6
                    7FC7     73 	OUT1BC		= 0x7FC7
                    7FC8     74 	OUT2CS		= 0x7FC8
                    7FC9     75 	OUT2BC		= 0x7FC9
                    7FCA     76 	OUT3CS		= 0x7FCA
                    7FCB     77 	OUT3BC		= 0x7FCB
                    7FCC     78 	OUT4CS		= 0x7FCC
                    7FCD     79 	OUT4BC		= 0x7FCD
                    7FCE     80 	OUT5CS		= 0x7FCE
                    7FCF     81 	OUT5BC		= 0x7FCF
                    7FD0     82 	OUT6CS		= 0x7FD0
                    7FD1     83 	OUT6BC		= 0x7FD1
                    7FD2     84 	OUT7CS		= 0x7FD2
                    7FD3     85 	OUT7BC		= 0x7FD3
                             86 
                    7FA8     87 	IVEC		= 0x7FA8
                    7FA9     88 	IN07IRQ		= 0x7FA9
                    7FAA     89 	OUT07IRQ	= 0x7FAA
                    7FAB     90 	USBIRQ		= 0x7FAB
                    7FAC     91 	IN07IEN		= 0x7FAC
                    7FAD     92 	OUT07IEN	= 0x7FAD
                    7FAE     93 	USBIEN		= 0x7FAE
                    7FAF     94 	USBBAV		= 0x7FAF
                    7FB2     95 	BPADDRH		= 0x7FB2
                    7FB3     96 	BPADDRL		= 0x7FB3
                             97 
                    7FD4     98 	SUDPTRH		= 0x7FD4
                    7FD5     99 	SUDPTRL		= 0x7FD5
                    7FD6    100 	USBCS		= 0x7FD6
                    7FD7    101 	TOGCTL		= 0x7FD7
                    7FD8    102 	USBFRAMEL	= 0x7FD8
                    7FD9    103 	USBFRAMEH	= 0x7FD9
                    7FDB    104 	FNADDR		= 0x7FDB
                    7FDD    105 	USBPAIR		= 0x7FDD
                    7FDE    106 	IN07VAL		= 0x7FDE
                    7FDF    107 	OUT07VAL	= 0x7FDF
                    7FE3    108 	AUTOPTRH	= 0x7FE3
                    7FE4    109 	AUTOPTRL	= 0x7FE4
                    7FE5    110 	AUTODATA	= 0x7FE5
                            111 
                            112 	;; isochronous endpoints. only available if ISODISAB=0
                            113 
                    7F60    114 	OUT8DATA	= 0x7F60
                    7F61    115 	OUT9DATA	= 0x7F61
                    7F62    116 	OUT10DATA	= 0x7F62
                    7F63    117 	OUT11DATA	= 0x7F63
                    7F64    118 	OUT12DATA	= 0x7F64
                    7F65    119 	OUT13DATA	= 0x7F65
                    7F66    120 	OUT14DATA	= 0x7F66
                    7F67    121 	OUT15DATA	= 0x7F67
                            122 
                    7F68    123 	IN8DATA		= 0x7F68
                    7F69    124 	IN9DATA		= 0x7F69
                    7F6A    125 	IN10DATA	= 0x7F6A
                    7F6B    126 	IN11DATA	= 0x7F6B
                    7F6C    127 	IN12DATA	= 0x7F6C
                    7F6D    128 	IN13DATA	= 0x7F6D
                    7F6E    129 	IN14DATA	= 0x7F6E
                    7F6F    130 	IN15DATA	= 0x7F6F
                            131 
                    7F70    132 	OUT8BCH		= 0x7F70
                    7F71    133 	OUT8BCL		= 0x7F71
                    7F72    134 	OUT9BCH		= 0x7F72
                    7F73    135 	OUT9BCL		= 0x7F73
                    7F74    136 	OUT10BCH	= 0x7F74
                    7F75    137 	OUT10BCL	= 0x7F75
                    7F76    138 	OUT11BCH	= 0x7F76
                    7F77    139 	OUT11BCL	= 0x7F77
                    7F78    140 	OUT12BCH	= 0x7F78
                    7F79    141 	OUT12BCL	= 0x7F79
                    7F7A    142 	OUT13BCH	= 0x7F7A
                    7F7B    143 	OUT13BCL	= 0x7F7B
                    7F7C    144 	OUT14BCH	= 0x7F7C
                    7F7D    145 	OUT14BCL	= 0x7F7D
                    7F7E    146 	OUT15BCH	= 0x7F7E
                    7F7F    147 	OUT15BCL	= 0x7F7F
                            148 
                    7FF0    149 	OUT8ADDR	= 0x7FF0
                    7FF1    150 	OUT9ADDR	= 0x7FF1
                    7FF2    151 	OUT10ADDR	= 0x7FF2
                    7FF3    152 	OUT11ADDR	= 0x7FF3
                    7FF4    153 	OUT12ADDR	= 0x7FF4
                    7FF5    154 	OUT13ADDR	= 0x7FF5
                    7FF6    155 	OUT14ADDR	= 0x7FF6
                    7FF7    156 	OUT15ADDR	= 0x7FF7
                    7FF8    157 	IN8ADDR		= 0x7FF8
                    7FF9    158 	IN9ADDR		= 0x7FF9
                    7FFA    159 	IN10ADDR	= 0x7FFA
                    7FFB    160 	IN11ADDR	= 0x7FFB
                    7FFC    161 	IN12ADDR	= 0x7FFC
                    7FFD    162 	IN13ADDR	= 0x7FFD
                    7FFE    163 	IN14ADDR	= 0x7FFE
                    7FFF    164 	IN15ADDR	= 0x7FFF
                            165 
                    7FA0    166 	ISOERR		= 0x7FA0
                    7FA1    167 	ISOCTL		= 0x7FA1
                    7FA2    168 	ZBCOUNT		= 0x7FA2
                    7FE0    169 	INISOVAL	= 0x7FE0
                    7FE1    170 	OUTISOVAL	= 0x7FE1
                    7FE2    171 	FASTXFR		= 0x7FE2
                            172 
                            173 	;; CPU control registers
                            174 
                    7F92    175 	CPUCS		= 0x7F92
                            176 
                            177 	;; IO port control registers
                            178 
                    7F93    179 	PORTACFG	= 0x7F93
                    7F94    180 	PORTBCFG	= 0x7F94
                    7F95    181 	PORTCCFG	= 0x7F95
                    7F96    182 	OUTA		= 0x7F96
                    7F97    183 	OUTB		= 0x7F97
                    7F98    184 	OUTC		= 0x7F98
                    7F99    185 	PINSA		= 0x7F99
                    7F9A    186 	PINSB		= 0x7F9A
                    7F9B    187 	PINSC		= 0x7F9B
                    7F9C    188 	OEA		= 0x7F9C
                    7F9D    189 	OEB		= 0x7F9D
                    7F9E    190 	OEC		= 0x7F9E
                            191 
                            192 	;; I2C controller registers
                            193 
                    7FA5    194 	I2CS		= 0x7FA5
                    7FA6    195 	I2DAT		= 0x7FA6
                            196 
                            197 	;; FPGA defines
                    0003    198 	XC4K_IRLENGTH	= 3
                    0000    199 	XC4K_EXTEST	= 0
                    0001    200 	XC4K_PRELOAD	= 1
                    0005    201 	XC4K_CONFIGURE	= 5
                    0007    202 	XC4K_BYPASS	= 7
                            203 
                    2E64    204 	FPGA_CONFIGSIZE = 11876
                    0158    205 	FPGA_BOUND	= 344
                            206 
                    0000    207 	SOFTWARECONFIG	= 0
                            208 	
                            209 	;; -----------------------------------------------------
                            210 
                            211 	.area CODE (CODE)
   0000 02s00r00            212 	ljmp	startup
   0003 02s00rDF            213 	ljmp	int0_isr
   0006                     214 	.ds	5
   000B 02s01r00            215 	ljmp	timer0_isr
   000E                     216 	.ds	5
   0013 02s01r30            217 	ljmp	int1_isr
   0016                     218 	.ds	5
   001B 02s01r51            219 	ljmp	timer1_isr
   001E                     220 	.ds	5
   0023 02s01r72            221 	ljmp	ser0_isr
   0026                     222 	.ds	5
   002B 02s01r95            223 	ljmp	timer2_isr
   002E                     224 	.ds	5
   0033 02s01rB6            225 	ljmp	resume_isr
   0036                     226 	.ds	5
   003B 02s01rD7            227 	ljmp	ser1_isr
   003E                     228 	.ds	5
   0043 02s01r00            229 	ljmp	usb_isr
   0046                     230 	.ds	5
   004B 02s01rFA            231 	ljmp	i2c_isr
   004E                     232 	.ds	5
   0053 02s02r1F            233 	ljmp	int4_isr
   0056                     234 	.ds	5
   005B 02s02r44            235 	ljmp	int5_isr
   005E                     236 	.ds	5
   0063 02s02r69            237 	ljmp	int6_isr
   0066                     238 	.ds	0x9a
                            239 
   0100                     240 usb_isr:
   0100 02s02rD2            241 	ljmp	usb_sudav_isr
   0103                     242 	.ds	1
   0104 02s04r3D            243 	ljmp	usb_sof_isr
   0107                     244 	.ds	1
   0108 02s04r68            245 	ljmp	usb_sutok_isr
   010B                     246 	.ds	1
   010C 02s04r93            247 	ljmp	usb_suspend_isr
   010F                     248 	.ds	1
   0110 02s04rBE            249 	ljmp	usb_usbreset_isr
   0113                     250 	.ds	1
   0114 32                  251 	reti
   0115                     252 	.ds	3
   0118 02s04rE9            253 	ljmp	usb_ep0in_isr
   011B                     254 	.ds	1
   011C 02s05r3F            255 	ljmp	usb_ep0out_isr
   011F                     256 	.ds	1
   0120 02s05rF7            257 	ljmp	usb_ep1in_isr
   0123                     258 	.ds	1
   0124 02s06r25            259 	ljmp	usb_ep1out_isr
   0127                     260 	.ds	1
   0128 02s06r50            261 	ljmp	usb_ep2in_isr
   012B                     262 	.ds	1
   012C 02s06r7B            263 	ljmp	usb_ep2out_isr
   012F                     264 	.ds	1
   0130 02s06rA6            265 	ljmp	usb_ep3in_isr
   0133                     266 	.ds	1
   0134 02s06rD1            267 	ljmp	usb_ep3out_isr
   0137                     268 	.ds	1
   0138 02s06rFC            269 	ljmp	usb_ep4in_isr
   013B                     270 	.ds	1
   013C 02s07r27            271 	ljmp	usb_ep4out_isr
   013F                     272 	.ds	1
   0140 02s07r52            273 	ljmp	usb_ep5in_isr
   0143                     274 	.ds	1
   0144 02s07r7D            275 	ljmp	usb_ep5out_isr
   0147                     276 	.ds	1
   0148 02s07rA8            277 	ljmp	usb_ep6in_isr
   014B                     278 	.ds	1
   014C 02s07rD3            279 	ljmp	usb_ep6out_isr
   014F                     280 	.ds	1
   0150 02s07rFE            281 	ljmp	usb_ep7in_isr
   0153                     282 	.ds	1
   0154 02s08r29            283 	ljmp	usb_ep7out_isr
                            284 
                            285 	;; -----------------------------------------------------
                            286 
                    0020    287 	RXCHUNKS = 32
                    0010    288 	TXCHUNKS = 16
                            289 
                    0000    290 	DEBUGIOCOPY	= 0
                    0000    291 	DEBUGRECEIVER	= 0
                            292 	
                            293 	.area	OSEG (OVR,DATA)
                            294 	.area	BSEG (BIT)
                            295 
                            296 
                            297 	.area	ISEG (DATA)
   0000                     298 txbcnt:		.ds	TXCHUNKS
   0010                     299 rxbcnt:		.ds	RXCHUNKS
   0030                     300 stack:		.ds	0x80-RXCHUNKS-TXCHUNKS
                            301 
                            302 	.area	DSEG (DATA)
   0000                     303 errcode:	.ds	1
   0001                     304 errval:		.ds	1
   0002                     305 cfgcount:	.ds	2
   0004                     306 leddiv:		.ds	1
   0005                     307 irqcount:	.ds	1
   0006                     308 ctrlcode:	.ds	1
   0007                     309 ctrladdr:	.ds	2
   0009                     310 ctrllen:	.ds	2
                            311 
                            312 	.area	XSEG (DATA)
                            313 
                            314 
                            315 	.area	GSINIT (CODE)
   0000                     316 startup:
   0000 75 81r30            317 	mov	sp,#stack	; -1
   0003 E4                  318 	clr	a
   0004 F5 D0               319 	mov	psw,a
   0006 F5 86               320 	mov	dps,a
                            321 	;lcall	__sdcc_external_startup
                            322 	;mov	a,dpl0
                            323 	;jz	__sdcc_init_data
                            324 	;ljmp	__sdcc_program_startup
   0008                     325 __sdcc_init_data:
                            326 
                            327 	.area	GSINIT2 (CODE)
                            328 
                    0002    329 	ar2 = 0x02
                    0003    330 	ar3 = 0x03
                    0004    331 	ar4 = 0x04
                    0005    332 	ar5 = 0x05
                    0006    333 	ar6 = 0x06
                    0007    334 	ar7 = 0x07
                    0000    335 	ar0 = 0x00
                    0001    336 	ar1 = 0x01
                            337 
   0000                     338 __sdcc_program_startup:
                            339 	;; assembler code startup
   0000 E4                  340 	clr	a
   0001 F5*00               341 	mov	errcode,a
   0003 F5*01               342 	mov	errval,a
   0005 F5*02               343 	mov	cfgcount,a
   0007 F5*03               344 	mov	cfgcount+1,a
   0009 F5*05               345  	mov	irqcount,a
   000B F5*06               346  	mov	ctrlcode,a
                            347 	;; some indirect register setup
   000D 75 8E 31            348 	mov	ckcon,#0x31	; one external wait state, to avoid chip bugs
                            349 	;; Timer setup:
                            350 	;; timer 0: LED blink    : T0M=0, CT0=0, MODE0=1
                            351 	;; timer 1: Baudrate gen : T1M=1, CT1=0, MODE1=2
   0010 75 89 21            352 	mov	tmod,#0x21
   0013 75 88 55            353 	mov	tcon,#0x55	; INT0/INT1 edge
   0016 75 8D 64            354 	mov	th1,#256-156	; 1200 bauds
   0019 75 87 00            355 	mov	pcon,#0		; SMOD0=0
                            356 	;; give Windows a chance to finish the writecpucs control transfer
                            357 	;; 5ms delay loop
   001C 90 F4 48            358 	mov	dptr,#(-3000)&0xffff
   001F A3                  359 0$:	inc	dptr		; 3 cycles
   0020 E5 82               360 	mov	a,dpl0		; 2 cycles
   0022 45 83               361 	orl	a,dph0		; 2 cycles
   0024 70 F9               362 	jnz	0$		; 3 cycles
                            363 	;; init USB subsystem
   0026 90 7F A1            364 	mov	dptr,#ISOCTL
   0029 74 01               365 	mov	a,#1		; disable ISO endpoints
   002B F0                  366 	movx	@dptr,a
   002C 90 7F AF            367 	mov	dptr,#USBBAV
   002F 74 01               368 	mov	a,#1		; enable autovector, disable breakpoint logic
   0031 F0                  369 	movx	@dptr,a
   0032 E4                  370 	clr	a
   0033 90 7F E0            371 	mov	dptr,#INISOVAL
   0036 F0                  372 	movx	@dptr,a
   0037 90 7F E1            373 	mov	dptr,#OUTISOVAL
   003A F0                  374 	movx	@dptr,a
   003B 90 7F DD            375 	mov	dptr,#USBPAIR
   003E 74 09               376 	mov	a,#0x9		; pair EP 2&3 for input & output
   0040 F0                  377 	movx	@dptr,a
   0041 90 7F DE            378 	mov	dptr,#IN07VAL
   0044 74 03               379 	mov	a,#0x3		; enable EP0+EP1
   0046 F0                  380 	movx	@dptr,a
   0047 90 7F DF            381 	mov	dptr,#OUT07VAL
   004A 74 05               382 	mov	a,#0x5		; enable EP0+EP2
   004C F0                  383 	movx	@dptr,a
                            384 	;; USB:	init endpoint toggles
   004D 90 7F D7            385 	mov	dptr,#TOGCTL
   0050 74 12               386 	mov	a,#0x12
   0052 F0                  387 	movx	@dptr,a
   0053 74 32               388 	mov	a,#0x32		; clear EP 2 in toggle
   0055 F0                  389 	movx	@dptr,a
   0056 74 02               390 	mov	a,#0x02
   0058 F0                  391 	movx	@dptr,a
   0059 74 22               392 	mov	a,#0x22		; clear EP 2 out toggle
   005B F0                  393 	movx	@dptr,a
                            394 	;; configure IO ports
   005C 90 7F 93            395 	mov	dptr,#PORTACFG
   005F 74 00               396 	mov	a,#0
   0061 F0                  397 	movx	@dptr,a
   0062 90 7F 96            398 	mov	dptr,#OUTA
   0065 74 80               399 	mov	a,#0x80		; set PROG lo
   0067 F0                  400 	movx	@dptr,a
   0068 90 7F 9C            401 	mov	dptr,#OEA
   006B 74 C2               402 	mov	a,#0xc2		; out: TMS,TDI,PROG  in: DONE
   006D F0                  403 	movx	@dptr,a
   006E 90 7F 94            404 	mov	dptr,#PORTBCFG
   0071 74 00               405 	mov	a,#0
   0073 F0                  406 	movx	@dptr,a
   0074 90 7F 9D            407 	mov	dptr,#OEB
   0077 74 00               408 	mov	a,#0
   0079 F0                  409 	movx	@dptr,a
   007A 90 7F 95            410 	mov	dptr,#PORTCCFG
   007D 74 00               411 	mov	a,#0
   007F F0                  412 	movx	@dptr,a
   0080 90 7F 98            413 	mov	dptr,#OUTC
   0083 74 20               414 	mov	a,#0x20
   0085 F0                  415 	movx	@dptr,a
   0086 90 7F 9E            416 	mov	dptr,#OEC
   0089 74 2E               417 	mov	a,#0x2e		; out: LEDCON,LEDSTA,TCK,INIT  in: TDO
   008B F0                  418 	movx	@dptr,a
                            419 	;; enable interrupts
   008C 75 A8 82            420 	mov	ie,#0x82	; enable timer 0 int
   008F 75 E8 01            421 	mov	eie,#0x01	; enable USB interrupts
   0092 90 7F AE            422 	mov	dptr,#USBIEN
   0095 74 01               423 	mov	a,#1		; enable SUDAV interrupt
   0097 F0                  424 	movx	@dptr,a
   0098 90 7F AC            425 	mov	dptr,#IN07IEN
   009B 74 03               426 	mov	a,#3		; enable EP0+EP1 interrupt
   009D F0                  427 	movx	@dptr,a
   009E 90 7F AD            428 	mov	dptr,#OUT07IEN
   00A1 74 01               429 	mov	a,#1		; enable EP0 interrupt
   00A3 F0                  430 	movx	@dptr,a
                            431 	;; initialize UART 0 for config loading
   00A4 75 98 20            432 	mov	scon0,#0x20	; mode 0, CLK24/4
   00A7 75 99 FF            433 	mov	sbuf0,#0xff
                            434 	;; initialize EP1 IN (irq)
   00AA 12s05rD8            435 	lcall	fillusbintr
                            436 
                            437 	;; some short delay
   00AD 90 7F 96            438 	mov	dptr,#OUTA
   00B0 74 82               439 	mov	a,#0x82		; set PROG hi
   00B2 F0                  440 	movx	@dptr,a
   00B3 90 7F 99            441 	mov	dptr,#PINSA
   00B6 E0                  442 	movx	a,@dptr
   00B7 30 E2 06            443 	jnb	acc.2,1$
                            444 	;; DONE stuck high
   00BA 75*00 80            445 	mov	errcode,#0x80
   00BD 02s01rE9            446 	ljmp	fpgaerr
   00C0 12s00r00            447 1$:	lcall	jtag_reset_tap
   00C3 7A 05               448 	mov	r2,#5
   00C5 7B 00               449 	mov	r3,#0
   00C7 7C 06               450 	mov	r4,#6
   00C9 12s00r06            451 	lcall	jtag_shiftout	; enter SHIFT-IR state
   00CC 7A 08               452 	mov	r2,#8
   00CE 7B 00               453 	mov	r3,#0
   00D0 7C 00               454 	mov	r4,#0
   00D2 12s00r06            455 	lcall	jtag_shiftout	; assume max. 8bit IR
   00D5 7A 08               456 	mov	r2,#8
   00D7 7B 01               457 	mov	r3,#1
   00D9 7C 00               458 	mov	r4,#0
   00DB 12s00r06            459 	lcall	jtag_shift	; shift in a single bit
   00DE 74 F8               460 	mov	a,#-(1<<XC4K_IRLENGTH)
   00E0 2F                  461 	add	a,r7
   00E1 60 08               462 	jz	2$
                            463 	;; JTAG instruction register error
   00E3 75*00 81            464 	mov	errcode,#0x81
   00E6 8F*01               465 	mov	errval,r7
   00E8 02s01rE9            466 	ljmp	fpgaerr
   00EB 7A 05               467 2$:	mov	r2,#XC4K_IRLENGTH+2
   00ED 7B 05               468 	mov	r3,#XC4K_CONFIGURE
   00EF 7C 0C               469 	mov	r4,#3<<(XC4K_IRLENGTH-1)
   00F1 12s00r06            470 	lcall	jtag_shiftout	; shift in CONFIGURE insn, goto RUNTEST/IDLE state
   00F4 90 7F 9E            471 	mov	dptr,#OEC
   00F7 74 2A               472 	mov	a,#0x2a		; out: LEDCON,LEDSTA,TCK  in: TDO,INIT
   00F9 F0                  473 	movx	@dptr,a
   00FA 75*00 01            474 	mov	errcode,#1
   00FD 90 7F 9B            475 	mov	dptr,#PINSC
   0100 E0                  476 3$:	movx	a,@dptr
   0101 30 E2 FC            477 	jnb	acc.2,3$
   0104 7A 03               478 	mov	r2,#3
   0106 7B FF               479 	mov	r3,#0xff
   0108 7C 01               480 	mov	r4,#1
   010A 12s00r06            481 	lcall	jtag_shiftout	; advance to SHIFT-DR state
                            482 	;; software configuration: enable UART special func pins
   010D 90 7F 96            483 	mov	dptr,#OUTA
   0110 74 42               484 	mov	a,#0x42		; PROG hi, TMS lo, TDI hi
   0112 F0                  485 	movx	@dptr,a
                    0000    486 	.if	SOFTWARECONFIG
                            487 	.else
   0113 90 7F 93            488 	mov	dptr,#PORTACFG
   0116 74 40               489 	mov	a,#0x40		; TDI is special function pin
   0118 F0                  490 	movx	@dptr,a
   0119 90 7F 95            491 	mov	dptr,#PORTCCFG
   011C 74 02               492 	mov	a,#0x02		; TCK is special function pin
   011E F0                  493 	movx	@dptr,a
                            494 	.endif
                            495 	;; start
   011F 75*00 10            496 	mov	errcode,#0x10
                            497 
   0122 90 7F C8            498 	mov	dptr,#OUT2CS
   0125 E4                  499 	clr	a
   0126 F0                  500 	movx	@dptr,a
   0127 90 7F C9            501 	mov	dptr,#OUT2BC
   012A F0                  502 	movx	@dptr,a		; arm EP2 OUT
                            503 	
                            504 	
   012B                     505 ldstloop:
   012B 90 7F C9            506 	mov	dptr,#OUT2BC
   012E F0                  507 	movx	@dptr,a		; arm EP2 OUT
   012F 90 7F C8            508 0$:	mov	dptr,#OUT2CS
   0132 E0                  509 	movx	a,@dptr
   0133 20 E1 F9            510 	jb	acc.1,0$
   0136 90 7F C9            511 	mov	dptr,#OUT2BC
   0139 E0                  512 	movx	a,@dptr
   013A 24 FE               513 	add	a,#-2
   013C 50 ED               514 	jnc	ldstloop
   013E 90 7D C0            515 	mov	dptr,#OUT2BUF
   0141 E0                  516 	movx	a,@dptr
   0142 B4 FF E6            517 	cjne	a,#0xff,ldstloop
   0145 A3                  518 	inc	dptr
   0146 E0                  519 	movx	a,@dptr
   0147 B4 04 E1            520 	cjne	a,#0x04,ldstloop
   014A 75*00 11            521 	mov	errcode,#0x11
   014D 80 0B               522 	sjmp	xxloadloop
                            523 
   014F                     524 loadloop:
   014F 90 7F C9            525 	mov	dptr,#OUT2BC
   0152 F0                  526 	movx	@dptr,a		; arm EP2 OUT
   0153 90 7F C8            527 0$:	mov	dptr,#OUT2CS
   0156 E0                  528 	movx	a,@dptr
   0157 20 E1 F9            529 	jb	acc.1,0$
   015A                     530 xxloadloop:
   015A 90 7F C9            531 	mov	dptr,#OUT2BC
   015D E0                  532 	movx	a,@dptr
   015E 60 EF               533 	jz	loadloop
   0160 FF                  534 	mov	r7,a
   0161 25*02               535 	add	a,cfgcount
   0163 F5*02               536 	mov	cfgcount,a
   0165 E4                  537 	clr	a
   0166 35*03               538 	addc	a,cfgcount+1
   0168 F5*03               539 	mov	cfgcount+1,a
   016A 90 7D C0            540 	mov	dptr,#OUT2BUF
                    0000    541 	.if	SOFTWARECONFIG
                            542 1$:	movx	a,@dptr
                            543 	mov	r3,a
                            544 	mov	r2,#8
                            545 	inc	dps
                            546 2$:	mov	a,#2
                            547 	xch	a,r3
                            548 	rrc	a
                            549 	xch	a,r3
                            550 	mov	acc.6,c
                            551 	mov	dptr,#OUTA
                            552 	movx	@dptr,a
                            553 	mov	dptr,#OUTC
                            554 	movx	a,@dptr
                            555 	setb	acc.1
                            556 	movx	@dptr,a
                            557 	clr	acc.1
                            558 	movx	@dptr,a
                            559 	djnz	r2,2$
                            560 	dec	dps
                            561 	inc	dptr
                            562 	djnz	r7,1$
                            563 	.else
   016D E0                  564 	movx	a,@dptr
   016E 80 04               565 	sjmp	3$
   0170 E0                  566 1$:	movx	a,@dptr
   0171 30 99 FD            567 2$:	jnb	scon0+1,2$
   0174 C2 99               568 3$:	clr	scon0+1
   0176 F5 99               569 	mov	sbuf0,a
   0178 A3                  570 	inc	dptr
   0179 DF F5               571 	djnz	r7,1$
                            572 	.endif
                            573 	;; check if init went low - indicates configuration error
   017B 90 7F 9B            574 	mov	dptr,#PINSC
   017E E0                  575 	movx	a,@dptr
   017F 20 E2 0C            576 	jb	acc.2,5$
                            577 	;; INIT low
   0182 90 7F C8            578 	mov	dptr,#OUT2CS
   0185 74 01               579 	mov	a,#0x01
   0187 F0                  580 	movx	@dptr,a
   0188 75*00 90            581 	mov	errcode,#0x90
   018B 02s01rE9            582 	ljmp	fpgaerr
   018E                     583 5$:	;; check for end of FPGA configuration data
   018E 74 9C               584 	mov	a,#<(-FPGA_CONFIGSIZE)
   0190 25*02               585 	add	a,cfgcount
   0192 74 D1               586 	mov	a,#>(-FPGA_CONFIGSIZE)
   0194 35*03               587 	addc	a,cfgcount+1
   0196 50 B7               588 	jnc	loadloop
                            589 	;; configuration download complete, start FPGA
   0198 90 7F 94            590 	mov	dptr,#PORTBCFG
   019B 74 00               591 	mov	a,#0		; TDI no longer special function pin
   019D F0                  592 	movx	@dptr,a
   019E 90 7F 95            593 	mov	dptr,#PORTCCFG
   01A1 74 00               594 	mov	a,#0		; TCK no longer special function pin
   01A3 F0                  595 	movx	@dptr,a
                            596 	;; wait for done loop
   01A4 7F FA               597 	mov	r7,#250
   01A6                     598 doneloop:
   01A6 90 7F 99            599 	mov	dptr,#PINSA
   01A9 E0                  600 	movx	a,@dptr
   01AA 20 E2 1F            601 	jb	acc.2,doneactive
   01AD 90 7F 9B            602 	mov	dptr,#PINSC
   01B0 E0                  603 	movx	a,@dptr
   01B1 20 E2 06            604 	jb	acc.2,1$
                            605 	;; INIT low
   01B4 75*00 90            606 	mov	errcode,#0x90
   01B7 02s01rE9            607 	ljmp	fpgaerr
   01BA 90 7F 98            608 1$:	mov	dptr,#OUTC
   01BD E0                  609 	movx	a,@dptr
   01BE D2 E1               610 	setb	acc.1
   01C0 F0                  611 	movx	@dptr,a
   01C1 C2 E1               612 	clr	acc.1
   01C3 F0                  613 	movx	@dptr,a
   01C4 DF E0               614 	djnz	r7,doneloop
                            615 	;; DONE stuck low
   01C6 75*00 91            616 	mov	errcode,#0x91
   01C9 02s01rE9            617 	ljmp	fpgaerr
                            618 	
   01CC                     619 doneactive:
                            620 	;; generate 16 clock pulses to start up FPGA
   01CC 7F 10               621 	mov	r7,#16
   01CE 90 7F 98            622 	mov	dptr,#OUTC
   01D1 E0                  623 	movx	a,@dptr
   01D2 D2 E1               624 0$:	setb	acc.1
   01D4 F0                  625 	movx	@dptr,a
   01D5 C2 E1               626 	clr	acc.1
   01D7 F0                  627 	movx	@dptr,a
   01D8 DF F8               628 	djnz	r7,0$
   01DA 90 7F 95            629 	mov	dptr,#PORTCCFG
   01DD 74 C0               630 	mov	a,#0xc0		; RD/WR is special function pin
   01DF F0                  631 	movx	@dptr,a
   01E0 75*00 20            632 	mov	errcode,#0x20
                            633 
   01E3 90 C0 08            634 	mov	dptr,#0xc008
   01E6 74 C7               635 	mov	a,#0xc7
   01E8 F0                  636 	movx	@dptr,a
                            637 	
   01E9                     638 fpgaerr:
   01E9 80 FE               639 	sjmp	fpgaerr
                            640 
                            641 	.area	CSEG (CODE)
                    0002    642 	ar2 = 0x02
                    0003    643 	ar3 = 0x03
                    0004    644 	ar4 = 0x04
                    0005    645 	ar5 = 0x05
                    0006    646 	ar6 = 0x06
                    0007    647 	ar7 = 0x07
                    0000    648 	ar0 = 0x00
                    0001    649 	ar1 = 0x01
                            650 
                            651 	;; jtag_shift
                            652 	;; r2 = num
                            653 	;; r3 = tdi
                            654 	;; r4 = tms
                            655 	;; return: r7 = tdo
   0000                     656 jtag_reset_tap:
   0000 7A 05               657 	mov	r2,#5
   0002 7B 00               658 	mov	r3,#0
   0004 7C FF               659 	mov	r4,#0xff
   0006                     660 jtag_shiftout:
   0006                     661 jtag_shift:
   0006 7E 01               662 	mov	r6,#1
   0008 7F 00               663 	mov	r7,#0
   000A 74 02               664 1$:	mov	a,#2
   000C CB                  665 	xch	a,r3
   000D 13                  666 	rrc	a
   000E CB                  667 	xch	a,r3
   000F 92 E6               668 	mov	acc.6,c
   0011 CC                  669 	xch	a,r4
   0012 13                  670 	rrc	a
   0013 CC                  671 	xch	a,r4
   0014 92 E7               672 	mov	acc.7,c
   0016 90 7F 96            673 	mov	dptr,#OUTA
   0019 F0                  674 	movx	@dptr,a
   001A 90 7F 9B            675 	mov	dptr,#PINSC
   001D E0                  676 	movx	a,@dptr
   001E 30 E0 03            677 	jnb	acc.0,2$
   0021 EE                  678 	mov	a,r6
   0022 42 07               679 	orl	ar7,a
   0024 90 7F 98            680 2$:	mov	dptr,#OUTC
   0027 E0                  681 	movx	a,@dptr
   0028 D2 E1               682 	setb	acc.1
   002A F0                  683 	movx	@dptr,a
   002B C2 E1               684 	clr	acc.1
   002D F0                  685 	movx	@dptr,a
   002E EE                  686 	mov	a,r6
   002F 23                  687 	rl	a
   0030 FE                  688 	mov	r6,a
   0031 DA D7               689 	djnz	r2,1$
   0033 22                  690 	ret
                            691 
                            692 	;; EEPROM address where the serial number is located
                            693 	
   0034                     694 eepromstraddr:
   0034 10                  695 	.db	0x10
                            696 
                            697 	;; I2C Routines
                            698 	;; note: ckcon should be set to #0x31 to avoid chip bugs
                            699 
   0035                     700 writei2c:
                            701 	;; dptr: data to be sent
                            702 	;; b:    device address
                            703 	;; r7:   transfer length
                            704 	;; return: a: status (bytes remaining, 0xff bus error)
   0035 05 86               705 	inc	dps
   0037 90 7F A5            706 	mov	dptr,#I2CS
   003A C2 F0               707 	clr	b.0		; r/w = 0
   003C 74 80               708 	mov	a,#0x80		; start condition
   003E F0                  709 	movx	@dptr,a
   003F 90 7F A6            710 	mov	dptr,#I2DAT
   0042 E5 F0               711 	mov	a,b
   0044 F0                  712 	movx	@dptr,a
   0045 90 7F A5            713 	mov	dptr,#I2CS	
   0048 E0                  714 0$:	movx	a,@dptr
   0049 20 E2 20            715 	jb	acc.2,3$	; BERR
   004C 30 E0 F9            716 	jnb	acc.0,0$	; DONE
   004F 30 E1 0F            717 	jnb	acc.1,1$	; ACK
   0052 90 7F A6            718 	mov	dptr,#I2DAT
   0055 15 86               719 	dec	dps
   0057 E0                  720 	movx	a,@dptr
   0058 A3                  721 	inc	dptr
   0059 05 86               722 	inc	dps
   005B F0                  723 	movx	@dptr,a
   005C 90 7F A5            724 	mov	dptr,#I2CS
   005F DF E7               725 	djnz	r7,0$
   0061 74 40               726 1$:	mov	a,#0x40		; stop condition
   0063 F0                  727 	movx	@dptr,a
   0064 E0                  728 2$:	movx	a,@dptr
   0065 20 E6 FC            729 	jb	acc.6,2$
   0068 15 86               730 	dec	dps
   006A EF                  731 	mov	a,r7
   006B 22                  732 	ret
   006C 7F FF               733 3$:	mov	r7,#255
   006E 80 F1               734 	sjmp	1$
                            735 
   0070                     736 readi2c:
                            737 	;; dptr: data to be sent
                            738 	;; b:    device address
                            739 	;; r7:   transfer length
                            740 	;; return: a: status (bytes remaining, 0xff bus error)
   0070 05 86               741 	inc	dps
   0072 90 7F A5            742 	mov	dptr,#I2CS
   0075 D2 F0               743 	setb	b.0		; r/w = 1
   0077 74 80               744 	mov	a,#0x80		; start condition
   0079 F0                  745 	movx	@dptr,a
   007A 90 7F A6            746 	mov	dptr,#I2DAT
   007D E5 F0               747 	mov	a,b
   007F F0                  748 	movx	@dptr,a
   0080 90 7F A5            749 	mov	dptr,#I2CS
   0083 E0                  750 0$:	movx	a,@dptr
   0084 20 E2 4C            751 	jb	acc.2,9$	; BERR
   0087 30 E0 F9            752 	jnb	acc.0,0$	; DONE
   008A 30 E1 03            753 	jnb	acc.1,5$	; ACK
   008D EF                  754 	mov	a,r7
   008E 70 0B               755 	jnz	1$
   0090 74 40               756 5$:	mov	a,#0x40		; stop condition
   0092 F0                  757 	movx	@dptr,a
   0093 E0                  758 2$:	movx	a,@dptr
   0094 20 E6 FC            759 	jb	acc.6,2$
   0097 15 86               760 	dec	dps
   0099 E4                  761 	clr	a
   009A 22                  762 	ret
   009B B4 01 03            763 1$:	cjne	a,#1,3$
   009E 74 20               764 	mov	a,#0x20		; LASTRD = 1
   00A0 F0                  765 	movx	@dptr,a
   00A1 90 7F A6            766 3$:	mov	dptr,#I2DAT
   00A4 E0                  767 	movx	a,@dptr		; initiate first read
   00A5 90 7F A5            768 	mov	dptr,#I2CS
   00A8 E0                  769 4$:	movx	a,@dptr
   00A9 20 E2 27            770 	jb	acc.2,9$	; BERR
   00AC 30 E0 F9            771 	jnb	acc.0,4$	; DONE
   00AF EF                  772 	mov	a,r7
   00B0 B4 02 03            773 	cjne	a,#2,6$
   00B3 74 20               774 	mov	a,#0x20		; LASTRD = 1
   00B5 F0                  775 	movx	@dptr,a
   00B6 B4 01 03            776 6$:	cjne	a,#1,7$
   00B9 74 40               777 	mov	a,#0x40		; stop condition
   00BB F0                  778 	movx	@dptr,a
   00BC 90 7F A6            779 7$:	mov	dptr,#I2DAT
   00BF E0                  780 	movx	a,@dptr		; read data
   00C0 15 86               781 	dec	dps
   00C2 F0                  782 	movx	@dptr,a
   00C3 A3                  783 	inc	dptr
   00C4 05 86               784 	inc	dps
   00C6 90 7F A5            785 	mov	dptr,#I2CS
   00C9 DF DD               786 	djnz	r7,4$
   00CB E0                  787 8$:	movx	a,@dptr
   00CC 20 E6 FC            788 	jb	acc.6,8$
   00CF 15 86               789 	dec	dps
   00D1 E4                  790 	clr	a
   00D2 22                  791 	ret
   00D3 74 40               792 9$:	mov	a,#0x40		; stop condition
   00D5 F0                  793 	movx	@dptr,a
   00D6 E0                  794 10$:	movx	a,@dptr
   00D7 20 E6 FC            795 	jb	acc.6,10$
   00DA 74 FF               796 	mov	a,#255
   00DC 15 86               797 	dec	dps
   00DE 22                  798 	ret
                            799 
                            800 	;; ------------------ interrupt handlers ------------------------
                            801 
   00DF                     802 int0_isr:
   00DF C0 E0               803 	push	acc
   00E1 C0 F0               804 	push	b
   00E3 C0 82               805 	push	dpl0
   00E5 C0 83               806 	push	dph0
   00E7 C0 D0               807 	push	psw
   00E9 75 D0 00            808 	mov	psw,#0x00
   00EC C0 86               809 	push	dps
   00EE 75 86 00            810 	mov	dps,#0
                            811 	;; clear interrupt
   00F1 C2 89               812 	clr	tcon+1
                            813 	;; handle interrupt
                            814 	;; epilogue
   00F3 D0 86               815 	pop	dps
   00F5 D0 D0               816 	pop	psw
   00F7 D0 83               817 	pop	dph0
   00F9 D0 82               818 	pop	dpl0
   00FB D0 F0               819 	pop	b
   00FD D0 E0               820 	pop	acc
   00FF 32                  821 	reti
                            822 
   0100                     823 timer0_isr:
   0100 C0 E0               824 	push	acc
   0102 C0 F0               825 	push	b
   0104 C0 82               826 	push	dpl0
   0106 C0 83               827 	push	dph0
   0108 C0 D0               828 	push	psw
   010A 75 D0 00            829 	mov	psw,#0x00
   010D C0 86               830 	push	dps
   010F 75 86 00            831 	mov	dps,#0
                            832 	;; clear interrupt
   0112 C2 8D               833 	clr	tcon+5
                            834 	;; handle interrupt
   0114 05*04               835 	inc	leddiv
   0116 E5*04               836 	mov	a,leddiv
   0118 54 07               837 	anl	a,#7
   011A 70 07               838 	jnz	0$
   011C 90 7F 98            839 	mov	dptr,#OUTC
   011F E0                  840 	movx	a,@dptr
   0120 64 08               841 	xrl	a,#0x08
   0122 F0                  842 	movx	@dptr,a
   0123                     843 0$:
                            844 	;; epilogue
   0123 D0 86               845 	pop	dps
   0125 D0 D0               846 	pop	psw
   0127 D0 83               847 	pop	dph0
   0129 D0 82               848 	pop	dpl0
   012B D0 F0               849 	pop	b
   012D D0 E0               850 	pop	acc
   012F 32                  851 	reti
                            852 
   0130                     853 int1_isr:
   0130 C0 E0               854 	push	acc
   0132 C0 F0               855 	push	b
   0134 C0 82               856 	push	dpl0
   0136 C0 83               857 	push	dph0
   0138 C0 D0               858 	push	psw
   013A 75 D0 00            859 	mov	psw,#0x00
   013D C0 86               860 	push	dps
   013F 75 86 00            861 	mov	dps,#0
                            862 	;; clear interrupt
   0142 C2 8B               863 	clr	tcon+3
                            864 	;; handle interrupt
                            865 	;; epilogue
   0144 D0 86               866 	pop	dps
   0146 D0 D0               867 	pop	psw
   0148 D0 83               868 	pop	dph0
   014A D0 82               869 	pop	dpl0
   014C D0 F0               870 	pop	b
   014E D0 E0               871 	pop	acc
   0150 32                  872 	reti
                            873 
   0151                     874 timer1_isr:
   0151 C0 E0               875 	push	acc
   0153 C0 F0               876 	push	b
   0155 C0 82               877 	push	dpl0
   0157 C0 83               878 	push	dph0
   0159 C0 D0               879 	push	psw
   015B 75 D0 00            880 	mov	psw,#0x00
   015E C0 86               881 	push	dps
   0160 75 86 00            882 	mov	dps,#0
                            883 	;; clear interrupt
   0163 C2 8F               884 	clr	tcon+7
                            885 	;; handle interrupt
                            886 	;; epilogue
   0165 D0 86               887 	pop	dps
   0167 D0 D0               888 	pop	psw
   0169 D0 83               889 	pop	dph0
   016B D0 82               890 	pop	dpl0
   016D D0 F0               891 	pop	b
   016F D0 E0               892 	pop	acc
   0171 32                  893 	reti
                            894 
   0172                     895 ser0_isr:
   0172 C0 E0               896 	push	acc
   0174 C0 F0               897 	push	b
   0176 C0 82               898 	push	dpl0
   0178 C0 83               899 	push	dph0
   017A C0 D0               900 	push	psw
   017C 75 D0 00            901 	mov	psw,#0x00
   017F C0 86               902 	push	dps
   0181 75 86 00            903 	mov	dps,#0
                            904 	;; clear interrupt
   0184 C2 98               905 	clr	scon0+0
   0186 C2 99               906 	clr	scon0+1
                            907 	;; handle interrupt
                            908 	;; epilogue
   0188 D0 86               909 	pop	dps
   018A D0 D0               910 	pop	psw
   018C D0 83               911 	pop	dph0
   018E D0 82               912 	pop	dpl0
   0190 D0 F0               913 	pop	b
   0192 D0 E0               914 	pop	acc
   0194 32                  915 	reti
                            916 
   0195                     917 timer2_isr:
   0195 C0 E0               918 	push	acc
   0197 C0 F0               919 	push	b
   0199 C0 82               920 	push	dpl0
   019B C0 83               921 	push	dph0
   019D C0 D0               922 	push	psw
   019F 75 D0 00            923 	mov	psw,#0x00
   01A2 C0 86               924 	push	dps
   01A4 75 86 00            925 	mov	dps,#0
                            926 	;; clear interrupt
   01A7 C2 CF               927 	clr	t2con+7
                            928 	;; handle interrupt
                            929 	;; epilogue
   01A9 D0 86               930 	pop	dps
   01AB D0 D0               931 	pop	psw
   01AD D0 83               932 	pop	dph0
   01AF D0 82               933 	pop	dpl0
   01B1 D0 F0               934 	pop	b
   01B3 D0 E0               935 	pop	acc
   01B5 32                  936 	reti
                            937 
   01B6                     938 resume_isr:
   01B6 C0 E0               939 	push	acc
   01B8 C0 F0               940 	push	b
   01BA C0 82               941 	push	dpl0
   01BC C0 83               942 	push	dph0
   01BE C0 D0               943 	push	psw
   01C0 75 D0 00            944 	mov	psw,#0x00
   01C3 C0 86               945 	push	dps
   01C5 75 86 00            946 	mov	dps,#0
                            947 	;; clear interrupt
   01C8 C2 DC               948 	clr	eicon+4
                            949 	;; handle interrupt
                            950 	;; epilogue
   01CA D0 86               951 	pop	dps
   01CC D0 D0               952 	pop	psw
   01CE D0 83               953 	pop	dph0
   01D0 D0 82               954 	pop	dpl0
   01D2 D0 F0               955 	pop	b
   01D4 D0 E0               956 	pop	acc
   01D6 32                  957 	reti
                            958 
   01D7                     959 ser1_isr:
   01D7 C0 E0               960 	push	acc
   01D9 C0 F0               961 	push	b
   01DB C0 82               962 	push	dpl0
   01DD C0 83               963 	push	dph0
   01DF C0 D0               964 	push	psw
   01E1 75 D0 00            965 	mov	psw,#0x00
   01E4 C0 86               966 	push	dps
   01E6 75 86 00            967 	mov	dps,#0
                            968 	;; clear interrupt
   01E9 C2 C0               969 	clr	scon1+0
   01EB C2 C1               970 	clr	scon1+1
                            971 	;; handle interrupt
                            972 	;; epilogue
   01ED D0 86               973 	pop	dps
   01EF D0 D0               974 	pop	psw
   01F1 D0 83               975 	pop	dph0
   01F3 D0 82               976 	pop	dpl0
   01F5 D0 F0               977 	pop	b
   01F7 D0 E0               978 	pop	acc
   01F9 32                  979 	reti
                            980 
   01FA                     981 i2c_isr:
   01FA C0 E0               982 	push	acc
   01FC C0 F0               983 	push	b
   01FE C0 82               984 	push	dpl0
   0200 C0 83               985 	push	dph0
   0202 C0 D0               986 	push	psw
   0204 75 D0 00            987 	mov	psw,#0x00
   0207 C0 86               988 	push	dps
   0209 75 86 00            989 	mov	dps,#0
                            990 	;; clear interrupt
   020C E5 91               991 	mov	a,exif
   020E C2 E5               992 	clr	acc.5
   0210 F5 91               993 	mov	exif,a
                            994 	;; handle interrupt
                            995 	;; epilogue
   0212 D0 86               996 	pop	dps
   0214 D0 D0               997 	pop	psw
   0216 D0 83               998 	pop	dph0
   0218 D0 82               999 	pop	dpl0
   021A D0 F0              1000 	pop	b
   021C D0 E0              1001 	pop	acc
   021E 32                 1002 	reti
                           1003 
   021F                    1004 int4_isr:
   021F C0 E0              1005 	push	acc
   0221 C0 F0              1006 	push	b
   0223 C0 82              1007 	push	dpl0
   0225 C0 83              1008 	push	dph0
   0227 C0 D0              1009 	push	psw
   0229 75 D0 00           1010 	mov	psw,#0x00
   022C C0 86              1011 	push	dps
   022E 75 86 00           1012 	mov	dps,#0
                           1013 	;; clear interrupt
   0231 E5 91              1014 	mov	a,exif
   0233 C2 E6              1015 	clr	acc.6
   0235 F5 91              1016 	mov	exif,a
                           1017 	;; handle interrupt
                           1018 	;; epilogue
   0237 D0 86              1019 	pop	dps
   0239 D0 D0              1020 	pop	psw
   023B D0 83              1021 	pop	dph0
   023D D0 82              1022 	pop	dpl0
   023F D0 F0              1023 	pop	b
   0241 D0 E0              1024 	pop	acc
   0243 32                 1025 	reti
                           1026 
   0244                    1027 int5_isr:
   0244 C0 E0              1028 	push	acc
   0246 C0 F0              1029 	push	b
   0248 C0 82              1030 	push	dpl0
   024A C0 83              1031 	push	dph0
   024C C0 D0              1032 	push	psw
   024E 75 D0 00           1033 	mov	psw,#0x00
   0251 C0 86              1034 	push	dps
   0253 75 86 00           1035 	mov	dps,#0
                           1036 	;; clear interrupt
   0256 E5 91              1037 	mov	a,exif
   0258 C2 E7              1038 	clr	acc.7
   025A F5 91              1039 	mov	exif,a
                           1040 	;; handle interrupt
                           1041 	;; epilogue
   025C D0 86              1042 	pop	dps
   025E D0 D0              1043 	pop	psw
   0260 D0 83              1044 	pop	dph0
   0262 D0 82              1045 	pop	dpl0
   0264 D0 F0              1046 	pop	b
   0266 D0 E0              1047 	pop	acc
   0268 32                 1048 	reti
                           1049 
   0269                    1050 int6_isr:
   0269 C0 E0              1051 	push	acc
   026B C0 F0              1052 	push	b
   026D C0 82              1053 	push	dpl0
   026F C0 83              1054 	push	dph0
   0271 C0 D0              1055 	push	psw
   0273 75 D0 00           1056 	mov	psw,#0x00
   0276 C0 86              1057 	push	dps
   0278 75 86 00           1058 	mov	dps,#0
                           1059 	;; clear interrupt
   027B C2 DB              1060 	clr	eicon+3
                           1061 	;; handle interrupt
                           1062 	;; epilogue
   027D D0 86              1063 	pop	dps
   027F D0 D0              1064 	pop	psw
   0281 D0 83              1065 	pop	dph0
   0283 D0 82              1066 	pop	dpl0
   0285 D0 F0              1067 	pop	b
   0287 D0 E0              1068 	pop	acc
   0289 32                 1069 	reti
                           1070 
   028A                    1071 xmemread::
   028A E5*09              1072 	mov	a,ctrllen
   028C FF                 1073 	mov	r7,a
   028D 24 C0              1074 	add	a,#-64
   028F F5*09              1075 	mov	ctrllen,a
   0291 E5*0A              1076 	mov	a,ctrllen+1
   0293 34 00              1077 	addc	a,#0
   0295 50 12              1078 	jnc	0$
   0297 E4                 1079 	clr	a
   0298 F5*09              1080 	mov	ctrllen,a
   029A F5*0A              1081 	mov	ctrllen+1,a
   029C F5*06              1082 	mov	ctrlcode,a
   029E 74 02              1083 	mov	a,#2		; ack control transfer
   02A0 90 7F B4           1084 	mov	dptr,#EP0CS
   02A3 F0                 1085 	movx	@dptr,a
   02A4 EF                 1086 	mov	a,r7
   02A5 60 25              1087 	jz	2$
   02A7 80 04              1088 	sjmp	1$
   02A9 F5*0A              1089 0$:	mov	ctrllen+1,a
   02AB 7F 40              1090 	mov	r7,#64
   02AD 8F 00              1091 1$:	mov	ar0,r7
   02AF 85*07 82           1092 	mov	dpl0,ctrladdr
   02B2 85*08 83           1093 	mov	dph0,ctrladdr+1
   02B5 05 86              1094 	inc	dps
   02B7 90 7F 00           1095 	mov	dptr,#IN0BUF
   02BA 15 86              1096 	dec	dps
   02BC E0                 1097 3$:	movx	a,@dptr
   02BD A3                 1098 	inc	dptr
   02BE 05 86              1099 	inc	dps
   02C0 F0                 1100 	movx	@dptr,a
   02C1 A3                 1101 	inc	dptr
   02C2 15 86              1102 	dec	dps
   02C4 D8 F6              1103 	djnz	r0,3$
   02C6 85 82*07           1104 	mov	ctrladdr,dpl0
   02C9 85 83*08           1105 	mov	ctrladdr+1,dph0
   02CC EF                 1106 2$:	mov	a,r7
   02CD 90 7F B5           1107 	mov	dptr,#IN0BC
   02D0 F0                 1108 	movx	@dptr,a
   02D1 22                 1109 	ret
                           1110 
   02D2                    1111 usb_sudav_isr:
   02D2 C0 E0              1112 	push	acc
   02D4 C0 F0              1113 	push	b
   02D6 C0 82              1114 	push	dpl0
   02D8 C0 83              1115 	push	dph0
   02DA C0 84              1116 	push	dpl1
   02DC C0 85              1117 	push	dph1
   02DE C0 D0              1118 	push	psw
   02E0 75 D0 00           1119 	mov	psw,#0x00
   02E3 C0 86              1120 	push	dps
   02E5 75 86 00           1121 	mov	dps,#0
   02E8 C0 00              1122 	push	ar0
   02EA C0 07              1123 	push	ar7
                           1124 	;; clear interrupt
   02EC E5 91              1125 	mov	a,exif
   02EE C2 E4              1126 	clr	acc.4
   02F0 F5 91              1127 	mov	exif,a
   02F2 90 7F AB           1128 	mov	dptr,#USBIRQ
   02F5 74 01              1129 	mov	a,#0x01
   02F7 F0                 1130 	movx	@dptr,a
                           1131 	;; handle interrupt
   02F8 75*06 00           1132 	mov	ctrlcode,#0		; reset control out code
   02FB 90 7F E9           1133 	mov	dptr,#SETUPDAT+1
   02FE E0                 1134 	movx	a,@dptr			; bRequest field
                           1135 	;; vendor specific commands
                           1136 	;; 0xa3
   02FF B4 A3 3E           1137 	cjne	a,#0xa3,cmdnota3
   0302 90 7F EA           1138 	mov	dptr,#SETUPDAT+2
   0305 E0                 1139 	movx	a,@dptr
   0306 F5*07              1140 	mov	ctrladdr,a
   0308 A3                 1141 	inc	dptr
   0309 E0                 1142 	movx	a,@dptr
   030A F5*08              1143 	mov	ctrladdr+1,a
   030C 24 50              1144 	add	a,#80
   030E 50 2D              1145 	jnc	setupstalla3
   0310 90 7F EE           1146 	mov	dptr,#SETUPDAT+6
   0313 E0                 1147 	movx	a,@dptr
   0314 F5*09              1148 	mov	ctrllen,a
   0316 25*07              1149 	add	a,ctrladdr
   0318 A3                 1150 	inc	dptr
   0319 E0                 1151 	movx	a,@dptr
   031A F5*0A              1152 	mov	ctrllen+1,a
   031C 35*08              1153 	addc	a,ctrladdr+1
   031E 40 1D              1154 	jc	setupstalla3
   0320 90 7F E8           1155 	mov	dptr,#SETUPDAT		; bRequestType == 0x40
   0323 E0                 1156 	movx	a,@dptr
   0324 B4 40 0A           1157 	cjne	a,#0x40,1$
   0327 75*06 01           1158 	mov	ctrlcode,#1
   032A 90 7F C5           1159 	mov	dptr,#OUT0BC
   032D F0                 1160 	movx	@dptr,a
   032E 02s04r28           1161 	ljmp	endusbisr
   0331 B4 C0 09           1162 1$:	cjne	a,#0xc0,setupstalla3	; bRequestType == 0xc0
   0334 75*06 02           1163 	mov	ctrlcode,#2
   0337 12s02r8A           1164 	lcall	xmemread
   033A 02s04r28           1165 	ljmp	endusbisr
   033D                    1166 setupstalla3:
   033D 02s04r1E           1167 	ljmp	setupstall
   0340                    1168 cmdnota3:
                           1169 	;; 0xb1
   0340 B4 B1 3E           1170 	cjne	a,#0xb1,cmdnotb1
   0343 90 7F E8           1171 	mov	dptr,#SETUPDAT		; bRequestType == 0xc0
   0346 E0                 1172 	movx	a,@dptr
   0347 B4 C0 34           1173 	cjne	a,#0xc0,setupstallb1
   034A 90 7F 00           1174 	mov	dptr,#IN0BUF
   034D E5*00              1175 	mov	a,errcode
   034F F0                 1176 	movx	@dptr,a
   0350 A3                 1177 	inc	dptr
   0351 E5*01              1178 	mov	a,errval
   0353 F0                 1179 	movx	@dptr,a
   0354 A3                 1180 	inc	dptr
   0355 E5 81              1181 	mov	a,sp
                           1182 
                           1183 ;;; xxxx
   0357 C0 82              1184 	push	dpl0
   0359 C0 83              1185 	push	dph0
   035B 90 7F DF           1186 	mov	dptr,#OUT07VAL
   035E E0                 1187 	movx	a,@dptr
   035F D0 83              1188 	pop	dph0
   0361 D0 82              1189 	pop	dpl0
                           1190 ;;; xxxx
                           1191 	
   0363 F0                 1192 	movx	@dptr,a
   0364 A3                 1193 	inc	dptr
   0365 74 00              1194 	mov	a,#0
                           1195 
                           1196 ;;; xxxx
   0367 C0 82              1197 	push	dpl0
   0369 C0 83              1198 	push	dph0
   036B 90 7F C8           1199 	mov	dptr,#OUT2CS
   036E E0                 1200 	movx	a,@dptr
   036F D0 83              1201 	pop	dph0
   0371 D0 82              1202 	pop	dpl0
                           1203 ;;; xxxx
                           1204 	
   0373 F0                 1205 	movx	@dptr,a
   0374 A3                 1206 	inc	dptr
   0375 90 7F B5           1207 	mov	dptr,#IN0BC
   0378 74 04              1208 	mov	a,#4
   037A F0                 1209 	movx	@dptr,a
   037B 02s04r22           1210 	ljmp	setupack
   037E                    1211 setupstallb1:
   037E 02s04r1E           1212 	ljmp	setupstall
   0381                    1213 cmdnotb1:
                           1214 	;; 0xb2
   0381 B4 B2 2B           1215 	cjne	a,#0xb2,cmdnotb2
   0384 90 7F E8           1216 	mov	dptr,#SETUPDAT		; bRequestType == 0xc0
   0387 E0                 1217 	movx	a,@dptr
   0388 B4 C0 21           1218 	cjne	a,#0xc0,setupstallb2
   038B 90 7F 00           1219 	mov	dptr,#IN0BUF
   038E E5*00              1220 	mov	a,errcode
   0390 F0                 1221 	movx	@dptr,a
   0391 A3                 1222 	inc	dptr
   0392 E5*01              1223 	mov	a,errval
   0394 F0                 1224 	movx	@dptr,a
   0395 A3                 1225 	inc	dptr
   0396 E5*02              1226 	mov	a,cfgcount
   0398 F0                 1227 	movx	@dptr,a
   0399 A3                 1228 	inc	dptr
   039A E5*03              1229 	mov	a,cfgcount+1
   039C F0                 1230 	movx	@dptr,a
   039D A3                 1231 	inc	dptr
   039E E5*05              1232 	mov	a,irqcount
   03A0 F0                 1233 	movx	@dptr,a
   03A1 90 7F B5           1234 	mov	dptr,#IN0BC
   03A4 74 05              1235 	mov	a,#5
   03A6 F0                 1236 	movx	@dptr,a
   03A7 05*05              1237 	inc	irqcount
   03A9 02s04r22           1238 	ljmp	setupack
   03AC                    1239 setupstallb2:
   03AC 02s04r1E           1240 	ljmp	setupstall
   03AF                    1241 cmdnotb2:
                           1242 	;; 0xb3
   03AF B4 B3 2A           1243 	cjne	a,#0xb3,cmdnotb3
   03B2 90 7F E8           1244 	mov	dptr,#SETUPDAT		; bRequestType == 0xc0
   03B5 E0                 1245 	movx	a,@dptr
   03B6 B4 C0 20           1246 	cjne	a,#0xc0,setupstallb3
                           1247 	;; read EEPROM
                    0006   1248 	serstrlen = 6
   03B9 75 F0 A0           1249 	mov	b,#0xa0		; EEPROM address
   03BC 90s00r34           1250 	mov	dptr,#eepromstraddr
   03BF 7F 01              1251 	mov	r7,#1
   03C1 12s00r35           1252 	lcall	writei2c
   03C4 70 13              1253 	jnz	setupstallb3
   03C6 90 7F 00           1254 	mov	dptr,#IN0BUF
   03C9 7F 06              1255 	mov	r7,#serstrlen
   03CB 12s00r70           1256 	lcall	readi2c
   03CE 70 09              1257 	jnz	setupstallb3
   03D0 74 06              1258 	mov	a,#serstrlen
   03D2 90 7F B5           1259 	mov	dptr,#IN0BC
   03D5 F0                 1260 	movx	@dptr,a
   03D6 02s04r22           1261 	ljmp	setupack
   03D9                    1262 setupstallb3:
   03D9 02s04r1E           1263 	ljmp	setupstall
   03DC                    1264 cmdnotb3:
                           1265 	;; 0xb4
   03DC B4 B4 3F           1266 	cjne	a,#0xb4,cmdnotb4
   03DF 90 7F EF           1267 	mov	dptr,#SETUPDAT+7
   03E2 E0                 1268 	movx	a,@dptr
   03E3 70 36              1269 	jnz	setupstallb4
   03E5 90 7F EE           1270 	mov	dptr,#SETUPDAT+6
   03E8 E0                 1271 	movx	a,@dptr
   03E9 F8                 1272 	mov	r0,a
   03EA FF                 1273 	mov	r7,a
   03EB 24 C0              1274 	add	a,#-64
   03ED 40 2C              1275 	jc	setupstallb4
   03EF 90 7F EC           1276 	mov	dptr,#SETUPDAT+4	; wIndex
   03F2 E0                 1277 	movx	a,@dptr
   03F3 F5 F0              1278 	mov	b,a
   03F5 F5*07              1279 	mov	ctrladdr,a
   03F7 90 7F E8           1280 	mov	dptr,#SETUPDAT
   03FA E0                 1281 	movx	a,@dptr
   03FB B4 40 0A           1282 	cjne	a,#0x40,0$		; bRequestType == 0x40
   03FE 75*06 02           1283 	mov	ctrlcode,#2
   0401 90 7F C5           1284 	mov	dptr,#OUT0BC
   0404 F0                 1285 	movx	@dptr,a
   0405 02s04r28           1286 	ljmp	endusbisr
   0408 B4 C0 10           1287 0$:	cjne	a,#0xc0,setupstallb4	; bRequestType == 0xc0
   040B 90 7F 00           1288 	mov	dptr,#IN0BUF
   040E 12s00r70           1289 	lcall	readi2c
   0411 70 08              1290 	jnz	setupstallb4
   0413 E8                 1291 	mov	a,r0
   0414 90 7F B5           1292 	mov	dptr,#IN0BC
   0417 F0                 1293 	movx	@dptr,a
   0418 02s04r22           1294 	ljmp	setupack
   041B                    1295 setupstallb4:
   041B 02s04r1E           1296 	ljmp	setupstall
   041E                    1297 cmdnotb4:
                           1298 	;; unknown commands fall through to setupstall
                           1299 
   041E                    1300 setupstall:
   041E 74 03              1301 	mov	a,#3
   0420 80 02              1302 	sjmp	endsetup
   0422                    1303 setupack:
   0422 74 02              1304 	mov	a,#2
   0424                    1305 endsetup:
   0424 90 7F B4           1306 	mov	dptr,#EP0CS
   0427 F0                 1307 	movx	@dptr,a
   0428                    1308 endusbisr:
                           1309 	;; epilogue
   0428 D0 07              1310 	pop	ar7
   042A D0 00              1311 	pop	ar0
   042C D0 86              1312 	pop	dps
   042E D0 D0              1313 	pop	psw
   0430 D0 85              1314 	pop	dph1
   0432 D0 84              1315 	pop	dpl1
   0434 D0 83              1316 	pop	dph0
   0436 D0 82              1317 	pop	dpl0
   0438 D0 F0              1318 	pop	b
   043A D0 E0              1319 	pop	acc
   043C 32                 1320 	reti
                           1321 
   043D                    1322 usb_sof_isr:
   043D C0 E0              1323 	push	acc
   043F C0 F0              1324 	push	b
   0441 C0 82              1325 	push	dpl0
   0443 C0 83              1326 	push	dph0
   0445 C0 D0              1327 	push	psw
   0447 75 D0 00           1328 	mov	psw,#0x00
   044A C0 86              1329 	push	dps
   044C 75 86 00           1330 	mov	dps,#0
                           1331 	;; clear interrupt
   044F E5 91              1332 	mov	a,exif
   0451 C2 E4              1333 	clr	acc.4
   0453 F5 91              1334 	mov	exif,a
   0455 90 7F AB           1335 	mov	dptr,#USBIRQ
   0458 74 02              1336 	mov	a,#0x02
   045A F0                 1337 	movx	@dptr,a
                           1338 	;; handle interrupt
                           1339 	;; epilogue
   045B D0 86              1340 	pop	dps
   045D D0 D0              1341 	pop	psw
   045F D0 83              1342 	pop	dph0
   0461 D0 82              1343 	pop	dpl0
   0463 D0 F0              1344 	pop	b
   0465 D0 E0              1345 	pop	acc
   0467 32                 1346 	reti
                           1347 
                           1348 
   0468                    1349 usb_sutok_isr:
   0468 C0 E0              1350 	push	acc
   046A C0 F0              1351 	push	b
   046C C0 82              1352 	push	dpl0
   046E C0 83              1353 	push	dph0
   0470 C0 D0              1354 	push	psw
   0472 75 D0 00           1355 	mov	psw,#0x00
   0475 C0 86              1356 	push	dps
   0477 75 86 00           1357 	mov	dps,#0
                           1358 	;; clear interrupt
   047A E5 91              1359 	mov	a,exif
   047C C2 E4              1360 	clr	acc.4
   047E F5 91              1361 	mov	exif,a
   0480 90 7F AB           1362 	mov	dptr,#USBIRQ
   0483 74 04              1363 	mov	a,#0x04
   0485 F0                 1364 	movx	@dptr,a
                           1365 	;; handle interrupt
                           1366 	;; epilogue
   0486 D0 86              1367 	pop	dps
   0488 D0 D0              1368 	pop	psw
   048A D0 83              1369 	pop	dph0
   048C D0 82              1370 	pop	dpl0
   048E D0 F0              1371 	pop	b
   0490 D0 E0              1372 	pop	acc
   0492 32                 1373 	reti
                           1374 
   0493                    1375 usb_suspend_isr:
   0493 C0 E0              1376 	push	acc
   0495 C0 F0              1377 	push	b
   0497 C0 82              1378 	push	dpl0
   0499 C0 83              1379 	push	dph0
   049B C0 D0              1380 	push	psw
   049D 75 D0 00           1381 	mov	psw,#0x00
   04A0 C0 86              1382 	push	dps
   04A2 75 86 00           1383 	mov	dps,#0
                           1384 	;; clear interrupt
   04A5 E5 91              1385 	mov	a,exif
   04A7 C2 E4              1386 	clr	acc.4
   04A9 F5 91              1387 	mov	exif,a
   04AB 90 7F AB           1388 	mov	dptr,#USBIRQ
   04AE 74 08              1389 	mov	a,#0x08
   04B0 F0                 1390 	movx	@dptr,a
                           1391 	;; handle interrupt
                           1392 	;; epilogue
   04B1 D0 86              1393 	pop	dps
   04B3 D0 D0              1394 	pop	psw
   04B5 D0 83              1395 	pop	dph0
   04B7 D0 82              1396 	pop	dpl0
   04B9 D0 F0              1397 	pop	b
   04BB D0 E0              1398 	pop	acc
   04BD 32                 1399 	reti
                           1400 
   04BE                    1401 usb_usbreset_isr:
   04BE C0 E0              1402 	push	acc
   04C0 C0 F0              1403 	push	b
   04C2 C0 82              1404 	push	dpl0
   04C4 C0 83              1405 	push	dph0
   04C6 C0 D0              1406 	push	psw
   04C8 75 D0 00           1407 	mov	psw,#0x00
   04CB C0 86              1408 	push	dps
   04CD 75 86 00           1409 	mov	dps,#0
                           1410 	;; clear interrupt
   04D0 E5 91              1411 	mov	a,exif
   04D2 C2 E4              1412 	clr	acc.4
   04D4 F5 91              1413 	mov	exif,a
   04D6 90 7F AB           1414 	mov	dptr,#USBIRQ
   04D9 74 10              1415 	mov	a,#0x10
   04DB F0                 1416 	movx	@dptr,a
                           1417 	;; handle interrupt
                           1418 	;; epilogue
   04DC D0 86              1419 	pop	dps
   04DE D0 D0              1420 	pop	psw
   04E0 D0 83              1421 	pop	dph0
   04E2 D0 82              1422 	pop	dpl0
   04E4 D0 F0              1423 	pop	b
   04E6 D0 E0              1424 	pop	acc
   04E8 32                 1425 	reti
                           1426 
   04E9                    1427 usb_ep0in_isr:
   04E9 C0 E0              1428 	push	acc
   04EB C0 F0              1429 	push	b
   04ED C0 82              1430 	push	dpl0
   04EF C0 83              1431 	push	dph0
   04F1 C0 84              1432 	push	dpl1
   04F3 C0 85              1433 	push	dph1
   04F5 C0 D0              1434 	push	psw
   04F7 75 D0 00           1435 	mov	psw,#0x00
   04FA C0 86              1436 	push	dps
   04FC 75 86 00           1437 	mov	dps,#0
   04FF C0 00              1438 	push	ar0
   0501 C0 07              1439 	push	ar7
                           1440 	;; clear interrupt
   0503 E5 91              1441 	mov	a,exif
   0505 C2 E4              1442 	clr	acc.4
   0507 F5 91              1443 	mov	exif,a
   0509 90 7F A9           1444 	mov	dptr,#IN07IRQ
   050C 74 01              1445 	mov	a,#0x01
   050E F0                 1446 	movx	@dptr,a
                           1447 	;; handle interrupt
   050F E5*06              1448 	mov	a,ctrlcode
   0511 B4 02 05           1449 	cjne	a,#2,0$
   0514 12s02r8A           1450 	lcall	xmemread
   0517 80 11              1451 	sjmp	ep0inendisr
   0519 90 7F B5           1452 0$:	mov	dptr,#IN0BC
   051C E4                 1453 	clr	a
   051D F0                 1454 	movx	@dptr,a
   051E 80 04              1455 	sjmp	ep0inack
                           1456 
   0520                    1457 ep0install:
   0520 74 03              1458 	mov	a,#3
   0522 80 02              1459 	sjmp	ep0incs
   0524                    1460 ep0inack:
   0524 74 02              1461 	mov	a,#2
   0526                    1462 ep0incs:
   0526 90 7F B4           1463 	mov	dptr,#EP0CS
   0529 F0                 1464 	movx	@dptr,a
   052A                    1465 ep0inendisr:
                           1466 	;; epilogue
   052A D0 07              1467 	pop	ar7
   052C D0 00              1468 	pop	ar0
   052E D0 86              1469 	pop	dps
   0530 D0 D0              1470 	pop	psw
   0532 D0 85              1471 	pop	dph1
   0534 D0 84              1472 	pop	dpl1
   0536 D0 83              1473 	pop	dph0
   0538 D0 82              1474 	pop	dpl0
   053A D0 F0              1475 	pop	b
   053C D0 E0              1476 	pop	acc
   053E 32                 1477 	reti
                           1478 
   053F                    1479 usb_ep0out_isr:
   053F C0 E0              1480 	push	acc
   0541 C0 F0              1481 	push	b
   0543 C0 82              1482 	push	dpl0
   0545 C0 83              1483 	push	dph0
   0547 C0 84              1484 	push	dpl1
   0549 C0 85              1485 	push	dph1
   054B C0 D0              1486 	push	psw
   054D 75 D0 00           1487 	mov	psw,#0x00
   0550 C0 86              1488 	push	dps
   0552 75 86 00           1489 	mov	dps,#0
   0555 C0 07              1490 	push	ar7
                           1491 	;; clear interrupt
   0557 E5 91              1492 	mov	a,exif
   0559 C2 E4              1493 	clr	acc.4
   055B F5 91              1494 	mov	exif,a
   055D 90 7F AA           1495 	mov	dptr,#OUT07IRQ
   0560 74 01              1496 	mov	a,#0x01
   0562 F0                 1497 	movx	@dptr,a
                           1498 	;; handle interrupt
   0563 E5*06              1499 	mov	a,ctrlcode		; check control code
   0565 B4 01 36           1500 	cjne	a,#0x01,i2cwr
                           1501 	;; write to external memory
   0568 90 7F C5           1502 	mov	dptr,#OUT0BC
   056B E0                 1503 	movx	a,@dptr
   056C 60 28              1504 	jz	0$
   056E FF                 1505 	mov	r7,a
   056F C3                 1506 	clr	c
   0570 E5*09              1507 	mov	a,ctrllen
   0572 9F                 1508 	subb	a,r7
   0573 F5*09              1509 	mov	ctrllen,a
   0575 E5*0A              1510 	mov	a,ctrllen+1
   0577 94 00              1511 	subb	a,#0
   0579 F5*0A              1512 	mov	ctrllen+1,a
   057B 40 38              1513 	jc	ep0outstall
   057D 90 7E C0           1514 	mov	dptr,#OUT0BUF
   0580 85*07 84           1515 	mov	dpl1,ctrladdr
   0583 85*08 85           1516 	mov	dph1,ctrladdr+1
   0586 E0                 1517 1$:	movx	a,@dptr
   0587 A3                 1518 	inc	dptr
   0588 05 86              1519 	inc	dps
   058A F0                 1520 	movx	@dptr,a
   058B A3                 1521 	inc	dptr
   058C 15 86              1522 	dec	dps
   058E DF F6              1523 	djnz	r7,1$
   0590 85 84*07           1524 	mov	ctrladdr,dpl1
   0593 85 85*08           1525 	mov	ctrladdr+1,dph1
   0596 E5*09              1526 0$:	mov	a,ctrllen
   0598 45*0A              1527 	orl	a,ctrllen+1
   059A 60 20              1528 	jz	ep0outack
   059C 80 27              1529 	sjmp	ep0outendisr
                           1530 
                           1531 	;; write I2C eeprom
   059E B4 02 14           1532 i2cwr:	cjne	a,#0x02,ep0outstall
   05A1 90 7F C5           1533 	mov	dptr,#OUT0BC
   05A4 E0                 1534 	movx	a,@dptr
   05A5 60 15              1535 	jz	ep0outack
   05A7 FF                 1536 	mov	r7,a
   05A8 85*07 F0           1537 	mov	b,ctrladdr
   05AB 90 7E C0           1538 	mov	dptr,#OUT0BUF
   05AE 12s00r35           1539 	lcall	writei2c
   05B1 70 02              1540 	jnz	ep0outstall
   05B3 80 07              1541 	sjmp	ep0outack
                           1542 
   05B5                    1543 ep0outstall:
   05B5 75*06 00           1544 	mov	ctrlcode,#0
   05B8 74 03              1545 	mov	a,#3
   05BA 80 05              1546 	sjmp	ep0outcs
   05BC                    1547 ep0outack:
   05BC 75*06 00           1548 	mov	ctrlcode,#0
   05BF 74 02              1549 	mov	a,#2
   05C1                    1550 ep0outcs:
   05C1 90 7F B4           1551 	mov	dptr,#EP0CS
   05C4 F0                 1552 	movx	@dptr,a
   05C5                    1553 ep0outendisr:
                           1554 	;; epilogue
   05C5 D0 07              1555 	pop	ar7
   05C7 D0 86              1556 	pop	dps
   05C9 D0 D0              1557 	pop	psw
   05CB D0 85              1558 	pop	dph1
   05CD D0 84              1559 	pop	dpl1
   05CF D0 83              1560 	pop	dph0
   05D1 D0 82              1561 	pop	dpl0
   05D3 D0 F0              1562 	pop	b
   05D5 D0 E0              1563 	pop	acc
   05D7 32                 1564 	reti
                           1565 
   05D8                    1566 fillusbintr::
   05D8 90 7E 80           1567 	mov	dptr,#IN1BUF
   05DB E5*00              1568 	mov	a,errcode
   05DD F0                 1569 	movx	@dptr,a
   05DE A3                 1570 	inc	dptr
   05DF E5*01              1571 	mov	a,errval
   05E1 F0                 1572 	movx	@dptr,a
   05E2 A3                 1573 	inc	dptr
   05E3 E5*02              1574 	mov	a,cfgcount
   05E5 F0                 1575 	movx	@dptr,a
   05E6 A3                 1576 	inc	dptr
   05E7 E5*03              1577 	mov	a,cfgcount+1
   05E9 F0                 1578 	movx	@dptr,a
   05EA A3                 1579 	inc	dptr
   05EB E5*05              1580 	mov	a,irqcount
   05ED F0                 1581 	movx	@dptr,a
   05EE 90 7F B7           1582 	mov	dptr,#IN1BC
   05F1 74 05              1583 	mov	a,#5
   05F3 F0                 1584 	movx	@dptr,a
   05F4 05*05              1585 	inc	irqcount
   05F6 22                 1586 	ret
                           1587 
   05F7                    1588 usb_ep1in_isr:
   05F7 C0 E0              1589 	push	acc
   05F9 C0 F0              1590 	push	b
   05FB C0 82              1591 	push	dpl0
   05FD C0 83              1592 	push	dph0
   05FF C0 D0              1593 	push	psw
   0601 75 D0 00           1594 	mov	psw,#0x00
   0604 C0 86              1595 	push	dps
   0606 75 86 00           1596 	mov	dps,#0
                           1597 	;; clear interrupt
   0609 E5 91              1598 	mov	a,exif
   060B C2 E4              1599 	clr	acc.4
   060D F5 91              1600 	mov	exif,a
   060F 90 7F A9           1601 	mov	dptr,#IN07IRQ
   0612 74 02              1602 	mov	a,#0x02
   0614 F0                 1603 	movx	@dptr,a
                           1604 	;; handle interrupt
   0615 12s05rD8           1605 	lcall	fillusbintr
                           1606 	;; epilogue
   0618 D0 86              1607 	pop	dps
   061A D0 D0              1608 	pop	psw
   061C D0 83              1609 	pop	dph0
   061E D0 82              1610 	pop	dpl0
   0620 D0 F0              1611 	pop	b
   0622 D0 E0              1612 	pop	acc
   0624 32                 1613 	reti
                           1614 
   0625                    1615 usb_ep1out_isr:
   0625 C0 E0              1616 	push	acc
   0627 C0 F0              1617 	push	b
   0629 C0 82              1618 	push	dpl0
   062B C0 83              1619 	push	dph0
   062D C0 D0              1620 	push	psw
   062F 75 D0 00           1621 	mov	psw,#0x00
   0632 C0 86              1622 	push	dps
   0634 75 86 00           1623 	mov	dps,#0
                           1624 	;; clear interrupt
   0637 E5 91              1625 	mov	a,exif
   0639 C2 E4              1626 	clr	acc.4
   063B F5 91              1627 	mov	exif,a
   063D 90 7F AA           1628 	mov	dptr,#OUT07IRQ
   0640 74 02              1629 	mov	a,#0x02
   0642 F0                 1630 	movx	@dptr,a
                           1631 	;; handle interrupt
                           1632 	;; epilogue
   0643 D0 86              1633 	pop	dps
   0645 D0 D0              1634 	pop	psw
   0647 D0 83              1635 	pop	dph0
   0649 D0 82              1636 	pop	dpl0
   064B D0 F0              1637 	pop	b
   064D D0 E0              1638 	pop	acc
   064F 32                 1639 	reti
                           1640 
   0650                    1641 usb_ep2in_isr:
   0650 C0 E0              1642 	push	acc
   0652 C0 F0              1643 	push	b
   0654 C0 82              1644 	push	dpl0
   0656 C0 83              1645 	push	dph0
   0658 C0 D0              1646 	push	psw
   065A 75 D0 00           1647 	mov	psw,#0x00
   065D C0 86              1648 	push	dps
   065F 75 86 00           1649 	mov	dps,#0
                           1650 	;; clear interrupt
   0662 E5 91              1651 	mov	a,exif
   0664 C2 E4              1652 	clr	acc.4
   0666 F5 91              1653 	mov	exif,a
   0668 90 7F A9           1654 	mov	dptr,#IN07IRQ
   066B 74 04              1655 	mov	a,#0x04
   066D F0                 1656 	movx	@dptr,a
                           1657 	;; handle interrupt
                           1658 	;; epilogue
   066E D0 86              1659 	pop	dps
   0670 D0 D0              1660 	pop	psw
   0672 D0 83              1661 	pop	dph0
   0674 D0 82              1662 	pop	dpl0
   0676 D0 F0              1663 	pop	b
   0678 D0 E0              1664 	pop	acc
   067A 32                 1665 	reti
                           1666 
   067B                    1667 usb_ep2out_isr:
   067B C0 E0              1668 	push	acc
   067D C0 F0              1669 	push	b
   067F C0 82              1670 	push	dpl0
   0681 C0 83              1671 	push	dph0
   0683 C0 D0              1672 	push	psw
   0685 75 D0 00           1673 	mov	psw,#0x00
   0688 C0 86              1674 	push	dps
   068A 75 86 00           1675 	mov	dps,#0
                           1676 	;; clear interrupt
   068D E5 91              1677 	mov	a,exif
   068F C2 E4              1678 	clr	acc.4
   0691 F5 91              1679 	mov	exif,a
   0693 90 7F AA           1680 	mov	dptr,#OUT07IRQ
   0696 74 04              1681 	mov	a,#0x04
   0698 F0                 1682 	movx	@dptr,a
                           1683 	;; handle interrupt
                           1684 	;; epilogue
   0699 D0 86              1685 	pop	dps
   069B D0 D0              1686 	pop	psw
   069D D0 83              1687 	pop	dph0
   069F D0 82              1688 	pop	dpl0
   06A1 D0 F0              1689 	pop	b
   06A3 D0 E0              1690 	pop	acc
   06A5 32                 1691 	reti
                           1692 
   06A6                    1693 usb_ep3in_isr:
   06A6 C0 E0              1694 	push	acc
   06A8 C0 F0              1695 	push	b
   06AA C0 82              1696 	push	dpl0
   06AC C0 83              1697 	push	dph0
   06AE C0 D0              1698 	push	psw
   06B0 75 D0 00           1699 	mov	psw,#0x00
   06B3 C0 86              1700 	push	dps
   06B5 75 86 00           1701 	mov	dps,#0
                           1702 	;; clear interrupt
   06B8 E5 91              1703 	mov	a,exif
   06BA C2 E4              1704 	clr	acc.4
   06BC F5 91              1705 	mov	exif,a
   06BE 90 7F A9           1706 	mov	dptr,#IN07IRQ
   06C1 74 08              1707 	mov	a,#0x08
   06C3 F0                 1708 	movx	@dptr,a
                           1709 	;; handle interrupt
                           1710 	;; epilogue
   06C4 D0 86              1711 	pop	dps
   06C6 D0 D0              1712 	pop	psw
   06C8 D0 83              1713 	pop	dph0
   06CA D0 82              1714 	pop	dpl0
   06CC D0 F0              1715 	pop	b
   06CE D0 E0              1716 	pop	acc
   06D0 32                 1717 	reti
                           1718 
   06D1                    1719 usb_ep3out_isr:
   06D1 C0 E0              1720 	push	acc
   06D3 C0 F0              1721 	push	b
   06D5 C0 82              1722 	push	dpl0
   06D7 C0 83              1723 	push	dph0
   06D9 C0 D0              1724 	push	psw
   06DB 75 D0 00           1725 	mov	psw,#0x00
   06DE C0 86              1726 	push	dps
   06E0 75 86 00           1727 	mov	dps,#0
                           1728 	;; clear interrupt
   06E3 E5 91              1729 	mov	a,exif
   06E5 C2 E4              1730 	clr	acc.4
   06E7 F5 91              1731 	mov	exif,a
   06E9 90 7F AA           1732 	mov	dptr,#OUT07IRQ
   06EC 74 08              1733 	mov	a,#0x08
   06EE F0                 1734 	movx	@dptr,a
                           1735 	;; handle interrupt
                           1736 	;; epilogue
   06EF D0 86              1737 	pop	dps
   06F1 D0 D0              1738 	pop	psw
   06F3 D0 83              1739 	pop	dph0
   06F5 D0 82              1740 	pop	dpl0
   06F7 D0 F0              1741 	pop	b
   06F9 D0 E0              1742 	pop	acc
   06FB 32                 1743 	reti
                           1744 
   06FC                    1745 usb_ep4in_isr:
   06FC C0 E0              1746 	push	acc
   06FE C0 F0              1747 	push	b
   0700 C0 82              1748 	push	dpl0
   0702 C0 83              1749 	push	dph0
   0704 C0 D0              1750 	push	psw
   0706 75 D0 00           1751 	mov	psw,#0x00
   0709 C0 86              1752 	push	dps
   070B 75 86 00           1753 	mov	dps,#0
                           1754 	;; clear interrupt
   070E E5 91              1755 	mov	a,exif
   0710 C2 E4              1756 	clr	acc.4
   0712 F5 91              1757 	mov	exif,a
   0714 90 7F A9           1758 	mov	dptr,#IN07IRQ
   0717 74 10              1759 	mov	a,#0x10
   0719 F0                 1760 	movx	@dptr,a
                           1761 	;; handle interrupt
                           1762 	;; epilogue
   071A D0 86              1763 	pop	dps
   071C D0 D0              1764 	pop	psw
   071E D0 83              1765 	pop	dph0
   0720 D0 82              1766 	pop	dpl0
   0722 D0 F0              1767 	pop	b
   0724 D0 E0              1768 	pop	acc
   0726 32                 1769 	reti
                           1770 
   0727                    1771 usb_ep4out_isr:
   0727 C0 E0              1772 	push	acc
   0729 C0 F0              1773 	push	b
   072B C0 82              1774 	push	dpl0
   072D C0 83              1775 	push	dph0
   072F C0 D0              1776 	push	psw
   0731 75 D0 00           1777 	mov	psw,#0x00
   0734 C0 86              1778 	push	dps
   0736 75 86 00           1779 	mov	dps,#0
                           1780 	;; clear interrupt
   0739 E5 91              1781 	mov	a,exif
   073B C2 E4              1782 	clr	acc.4
   073D F5 91              1783 	mov	exif,a
   073F 90 7F AA           1784 	mov	dptr,#OUT07IRQ
   0742 74 10              1785 	mov	a,#0x10
   0744 F0                 1786 	movx	@dptr,a
                           1787 	;; handle interrupt
                           1788 	;; epilogue
   0745 D0 86              1789 	pop	dps
   0747 D0 D0              1790 	pop	psw
   0749 D0 83              1791 	pop	dph0
   074B D0 82              1792 	pop	dpl0
   074D D0 F0              1793 	pop	b
   074F D0 E0              1794 	pop	acc
   0751 32                 1795 	reti
                           1796 
   0752                    1797 usb_ep5in_isr:
   0752 C0 E0              1798 	push	acc
   0754 C0 F0              1799 	push	b
   0756 C0 82              1800 	push	dpl0
   0758 C0 83              1801 	push	dph0
   075A C0 D0              1802 	push	psw
   075C 75 D0 00           1803 	mov	psw,#0x00
   075F C0 86              1804 	push	dps
   0761 75 86 00           1805 	mov	dps,#0
                           1806 	;; clear interrupt
   0764 E5 91              1807 	mov	a,exif
   0766 C2 E4              1808 	clr	acc.4
   0768 F5 91              1809 	mov	exif,a
   076A 90 7F A9           1810 	mov	dptr,#IN07IRQ
   076D 74 20              1811 	mov	a,#0x20
   076F F0                 1812 	movx	@dptr,a
                           1813 	;; handle interrupt
                           1814 	;; epilogue
   0770 D0 86              1815 	pop	dps
   0772 D0 D0              1816 	pop	psw
   0774 D0 83              1817 	pop	dph0
   0776 D0 82              1818 	pop	dpl0
   0778 D0 F0              1819 	pop	b
   077A D0 E0              1820 	pop	acc
   077C 32                 1821 	reti
                           1822 
   077D                    1823 usb_ep5out_isr:
   077D C0 E0              1824 	push	acc
   077F C0 F0              1825 	push	b
   0781 C0 82              1826 	push	dpl0
   0783 C0 83              1827 	push	dph0
   0785 C0 D0              1828 	push	psw
   0787 75 D0 00           1829 	mov	psw,#0x00
   078A C0 86              1830 	push	dps
   078C 75 86 00           1831 	mov	dps,#0
                           1832 	;; clear interrupt
   078F E5 91              1833 	mov	a,exif
   0791 C2 E4              1834 	clr	acc.4
   0793 F5 91              1835 	mov	exif,a
   0795 90 7F AA           1836 	mov	dptr,#OUT07IRQ
   0798 74 20              1837 	mov	a,#0x20
   079A F0                 1838 	movx	@dptr,a
                           1839 	;; handle interrupt
                           1840 	;; epilogue
   079B D0 86              1841 	pop	dps
   079D D0 D0              1842 	pop	psw
   079F D0 83              1843 	pop	dph0
   07A1 D0 82              1844 	pop	dpl0
   07A3 D0 F0              1845 	pop	b
   07A5 D0 E0              1846 	pop	acc
   07A7 32                 1847 	reti
                           1848 
   07A8                    1849 usb_ep6in_isr:
   07A8 C0 E0              1850 	push	acc
   07AA C0 F0              1851 	push	b
   07AC C0 82              1852 	push	dpl0
   07AE C0 83              1853 	push	dph0
   07B0 C0 D0              1854 	push	psw
   07B2 75 D0 00           1855 	mov	psw,#0x00
   07B5 C0 86              1856 	push	dps
   07B7 75 86 00           1857 	mov	dps,#0
                           1858 	;; clear interrupt
   07BA E5 91              1859 	mov	a,exif
   07BC C2 E4              1860 	clr	acc.4
   07BE F5 91              1861 	mov	exif,a
   07C0 90 7F A9           1862 	mov	dptr,#IN07IRQ
   07C3 74 40              1863 	mov	a,#0x40
   07C5 F0                 1864 	movx	@dptr,a
                           1865 	;; handle interrupt
                           1866 	;; epilogue
   07C6 D0 86              1867 	pop	dps
   07C8 D0 D0              1868 	pop	psw
   07CA D0 83              1869 	pop	dph0
   07CC D0 82              1870 	pop	dpl0
   07CE D0 F0              1871 	pop	b
   07D0 D0 E0              1872 	pop	acc
   07D2 32                 1873 	reti
                           1874 
   07D3                    1875 usb_ep6out_isr:
   07D3 C0 E0              1876 	push	acc
   07D5 C0 F0              1877 	push	b
   07D7 C0 82              1878 	push	dpl0
   07D9 C0 83              1879 	push	dph0
   07DB C0 D0              1880 	push	psw
   07DD 75 D0 00           1881 	mov	psw,#0x00
   07E0 C0 86              1882 	push	dps
   07E2 75 86 00           1883 	mov	dps,#0
                           1884 	;; clear interrupt
   07E5 E5 91              1885 	mov	a,exif
   07E7 C2 E4              1886 	clr	acc.4
   07E9 F5 91              1887 	mov	exif,a
   07EB 90 7F AA           1888 	mov	dptr,#OUT07IRQ
   07EE 74 40              1889 	mov	a,#0x40
   07F0 F0                 1890 	movx	@dptr,a
                           1891 	;; handle interrupt
                           1892 	;; epilogue
   07F1 D0 86              1893 	pop	dps
   07F3 D0 D0              1894 	pop	psw
   07F5 D0 83              1895 	pop	dph0
   07F7 D0 82              1896 	pop	dpl0
   07F9 D0 F0              1897 	pop	b
   07FB D0 E0              1898 	pop	acc
   07FD 32                 1899 	reti
                           1900 
   07FE                    1901 usb_ep7in_isr:
   07FE C0 E0              1902 	push	acc
   0800 C0 F0              1903 	push	b
   0802 C0 82              1904 	push	dpl0
   0804 C0 83              1905 	push	dph0
   0806 C0 D0              1906 	push	psw
   0808 75 D0 00           1907 	mov	psw,#0x00
   080B C0 86              1908 	push	dps
   080D 75 86 00           1909 	mov	dps,#0
                           1910 	;; clear interrupt
   0810 E5 91              1911 	mov	a,exif
   0812 C2 E4              1912 	clr	acc.4
   0814 F5 91              1913 	mov	exif,a
   0816 90 7F A9           1914 	mov	dptr,#IN07IRQ
   0819 74 80              1915 	mov	a,#0x80
   081B F0                 1916 	movx	@dptr,a
                           1917 	;; handle interrupt
                           1918 	;; epilogue
   081C D0 86              1919 	pop	dps
   081E D0 D0              1920 	pop	psw
   0820 D0 83              1921 	pop	dph0
   0822 D0 82              1922 	pop	dpl0
   0824 D0 F0              1923 	pop	b
   0826 D0 E0              1924 	pop	acc
   0828 32                 1925 	reti
                           1926 
   0829                    1927 usb_ep7out_isr:
   0829 C0 E0              1928 	push	acc
   082B C0 F0              1929 	push	b
   082D C0 82              1930 	push	dpl0
   082F C0 83              1931 	push	dph0
   0831 C0 D0              1932 	push	psw
   0833 75 D0 00           1933 	mov	psw,#0x00
   0836 C0 86              1934 	push	dps
   0838 75 86 00           1935 	mov	dps,#0
                           1936 	;; clear interrupt
   083B E5 91              1937 	mov	a,exif
   083D C2 E4              1938 	clr	acc.4
   083F F5 91              1939 	mov	exif,a
   0841 90 7F AA           1940 	mov	dptr,#OUT07IRQ
   0844 74 80              1941 	mov	a,#0x80
   0846 F0                 1942 	movx	@dptr,a
                           1943 	;; handle interrupt
                           1944 	;; epilogue
   0847 D0 86              1945 	pop	dps
   0849 D0 D0              1946 	pop	psw
   084B D0 83              1947 	pop	dph0
   084D D0 82              1948 	pop	dpl0
   084F D0 F0              1949 	pop	b
   0851 D0 E0              1950 	pop	acc
   0853 32                 1951 	reti
